{
    "KPlugin": {
        "Authors": [
            {
                "Name": "Anton Anikin",
                "Name[az]": "Anton Anikin",
                "Name[ca@valencia]": "Anton Anikin",
                "Name[ca]": "Anton Anikin",
                "Name[cs]": "Anton Anikin",
                "Name[de]": "Anton Anikin",
                "Name[el]": "Anton Anikin",
                "Name[en_GB]": "Anton Anikin",
                "Name[es]": "Anton Anikin",
                "Name[et]": "Anton Anikin",
                "Name[eu]": "Anton Anikin",
                "Name[fr]": "Anton Anikin",
                "Name[gl]": "Anton Anikin",
                "Name[it]": "Anton Anikin",
                "Name[ka]": "ანტონ ანიკინი",
                "Name[ko]": "Anton Anikin",
                "Name[nl]": "Anton Anikin",
                "Name[nn]": "Anton Anikin",
                "Name[pl]": "Anton Anikin",
                "Name[pt]": "Anton Anikin",
                "Name[pt_BR]": "Anton Anikin",
                "Name[ru]": "Антон Аникин",
                "Name[sk]": "Anton Anikin",
                "Name[sl]": "Anton Anikin",
                "Name[sv]": "Anton Anikin",
                "Name[tr]": "Anton Anikin",
                "Name[uk]": "Anton Anikin",
                "Name[x-test]": "xxAnton Anikinxx",
                "Name[zh_CN]": "Anton Anikin"
            }
        ],
        "Category": "Analyzers",
        "Description": "This plugin integrates Heaptrack to KDevelop",
        "Description[az]": "Bu qoşma, Heaptrack'ı KDevelop'a inteqrasiya edir",
        "Description[ca@valencia]": "Este connector integra Heaptrack a KDevelop",
        "Description[ca]": "Aquest connector integra el Heaptrack al KDevelop",
        "Description[cs]": "Tento modul integruje Heaptrack do KDevelop",
        "Description[de]": "Dieses Modul integriert Heaptrack in KDevelop",
        "Description[el]": "Αυτό το πρόσθετο ενσωματώνει το Heaptrack στο KDevelop",
        "Description[en_GB]": "This plugin integrates Heaptrack to KDevelop",
        "Description[es]": "Este complemento integra Heaptrack en KDevelop",
        "Description[et]": "See plugin lõimib Heaptracki KDevelopiga",
        "Description[eu]": "Plugin honek Heaptrack KDevelopen integratzen du",
        "Description[fr]": "Ce module externe intègre Heaptrack à KDevelop",
        "Description[gl]": "Este complemento integra Heaptrack con KDevelop.",
        "Description[it]": "Questa estensione integra Heaptrack in KDevelop",
        "Description[ko]": "이 플러그인은 KDevelop에 Heaptrack을 통합합니다",
        "Description[nl]": "Deze plugin integreert Heaptrack in KDevelop",
        "Description[pl]": "Wplata Heaptrack w KDevelop",
        "Description[pt]": "Este 'plugin' integra o Heaptrack no KDevelop",
        "Description[pt_BR]": "Este plugin integra o Heaptrack ao KDevelop",
        "Description[ru]": "Это расширение интегрирует Heaptrack в KDevelop",
        "Description[sk]": "Tento plugin integruje Heaptrack pre KDevelop",
        "Description[sl]": "Ta vstavek v KDevelop vgradi Heaptrack",
        "Description[sv]": "Insticksprogrammet integrerar Heaptrack i KDevelop",
        "Description[tr]": "Bu eklenti Heaptrack uygulamasını KDevelop ile bütünleştirir",
        "Description[uk]": "За допомогою цього додатка можна інтегрувати Heaptrack до KDevelop",
        "Description[x-test]": "xxThis plugin integrates Heaptrack to KDevelopxx",
        "Description[zh_CN]": "此插件将 Heaptrack 整合到 KDevelop",
        "Icon": "office-chart-area",
        "Id": "kdevheaptrack",
        "License": "GPL",
        "Name": "Heaptrack Support",
        "Name[az]": "Heaptrack dəstəyi",
        "Name[ca@valencia]": "Implementació de Heaptrack",
        "Name[ca]": "Implementació del Heaptrack",
        "Name[cs]": "Podpora Heaptracku",
        "Name[de]": "Heaptrack-Unterstützung",
        "Name[el]": "Υποστήριξη heaptrack",
        "Name[en_GB]": "Heaptrack Support",
        "Name[es]": "Implementación de Heaptrack",
        "Name[et]": "Heaptracki toetus",
        "Name[eu]": "Heaptrack bateragarritasuna",
        "Name[fr]": "Prise en charge Heaptrack",
        "Name[gl]": "Compatibilidade con Heaptrack.",
        "Name[it]": "Supporto per Heaptrack",
        "Name[ka]": "Heaptrack-ის მხარდაჭერა",
        "Name[ko]": "힙 추적 지원",
        "Name[nl]": "Ondersteuning van Heaptrack",
        "Name[pl]": "Obsługa Heaptrack",
        "Name[pt]": "Suporte para o Heaptrack",
        "Name[pt_BR]": "Suporte ao Heaptrack",
        "Name[ru]": "Поддержка Heaptrack",
        "Name[sk]": "Podpora Heaptrack",
        "Name[sl]": "Podpora za Heaptrack",
        "Name[sv]": "Heaptrack-stöd",
        "Name[tr]": "Heaptrack Desteği",
        "Name[uk]": "Підтримка Heaptrack",
        "Name[x-test]": "xxHeaptrack Supportxx",
        "Name[zh_CN]": "Heaptrack 支持"
    },
    "X-KDevelop-Category": "Global",
    "X-KDevelop-IRequired": [
        "org.kdevelop.IExecutePlugin@kdevexecute"
    ],
    "X-KDevelop-Mode": "GUI"
}
