{
    "KPlugin": {
        "Authors": [
            {
                "Name": "Miha Čančula",
                "Name[ar]": "Miha Čančula",
                "Name[az]": "Miha Čančula",
                "Name[ca@valencia]": "Miha Čančula",
                "Name[ca]": "Miha Čančula",
                "Name[cs]": "Miha Čančula",
                "Name[de]": "Miha Čančula",
                "Name[el]": "Miha Čančula",
                "Name[en_GB]": "Miha Čančula",
                "Name[es]": "Miha Čančula",
                "Name[et]": "Miha Čančula",
                "Name[eu]": "Miha Čančula",
                "Name[fr]": "Miha Čančula",
                "Name[gl]": "Miha Čančula",
                "Name[it]": "Miha Čančula",
                "Name[ka]": "მიჰა ჩანჩულა",
                "Name[ko]": "Miha Čančula",
                "Name[nl]": "Miha Čančula",
                "Name[nn]": "Miha Čančula",
                "Name[pl]": "Miha Čančula",
                "Name[pt]": "Miha Čančula",
                "Name[pt_BR]": "Miha Čančula",
                "Name[ru]": "Miha Čančula",
                "Name[sk]": "Miha Čančula",
                "Name[sl]": "Miha Čančula",
                "Name[sv]": "Miha Čančula",
                "Name[tr]": "Miha Čančula",
                "Name[uk]": "Miha Čančula",
                "Name[x-test]": "xxMiha Čančulaxx",
                "Name[zh_CN]": "Miha Čančula"
            }
        ],
        "Category": "Testing",
        "Description": "Lets you see and run unit tests.",
        "Description[az]": "Modul testlərini görməyə və işə salanıza omkan verir.",
        "Description[ca@valencia]": "Us permet veure i executar proves unitàries.",
        "Description[ca]": "Us permet veure i executar proves unitàries.",
        "Description[cs]": "Umožňuje vám zobrazit a spouštět unit testy.",
        "Description[de]": "Unit-Tests anzeigen und ausführen.",
        "Description[el]": "Σας επιτρέπει να δείτε και να εκτελείτε unit tests.",
        "Description[en_GB]": "Lets you see and run unit tests.",
        "Description[es]": "Le permite ver y ejecutar pruebas unitarias.",
        "Description[et]": "Ühiktestide näitamine ja käivitamine.",
        "Description[eu]": "Proba unitarioak ikusi eta exekutatzen uzten du.",
        "Description[fr]": "Vous permet de voir et exécuter des tests unitaires.",
        "Description[gl]": "Permite ver e executar probas unitarias.",
        "Description[it]": "Consente di vedere ed eseguire i test d'unità.",
        "Description[ko]": "단위 테스트를 보고 실행합니다.",
        "Description[nl]": "Laat u testen van eenheden zien en uitvoeren.",
        "Description[pl]": "Umożliwia uruchomienie i obejrzenie testów jednostkowych.",
        "Description[pt]": "Permite-lhe ver e executar testes unitários.",
        "Description[pt_BR]": "Permite-lhe ver e executar testes unitários.",
        "Description[ru]": "Позволяет просматривать и запускать модульные тесты",
        "Description[sk]": "Umožní vám vidieť a spustiť unit testy.",
        "Description[sl]": "Omogoča ogled in zagon preizkusov enot.",
        "Description[sv]": "Låter dig titta på och köra enhetstester.",
        "Description[tr]": "Birim testlerini görmenizi ve çalıştırmanızı sağlar.",
        "Description[uk]": "Надає вам змогу переглядати і виконувати перевірки модулів.",
        "Description[x-test]": "xxLets you see and run unit tests.xx",
        "Description[zh_CN]": "让您查看并运行单元测试。",
        "Description[zh_TW]": "讓您查看並執行單元測試。",
        "Icon": "preflight-verifier",
        "Id": "kdevtestview",
        "License": "GPL",
        "Name": "Unit Test View",
        "Name[az]": "Vahid test görünüşü",
        "Name[bs]": "Pogled testa jedinica",
        "Name[ca@valencia]": "Vista de proves unitàries",
        "Name[ca]": "Vista de proves unitàries",
        "Name[cs]": "Pohled na Unit testy",
        "Name[da]": "Visning af unittests",
        "Name[de]": "Unittest-Ansicht",
        "Name[el]": "Προβολή unit test",
        "Name[en_GB]": "Unit Test View",
        "Name[es]": "Vista de la prueba unitaria",
        "Name[et]": "Ühiktestide vaade",
        "Name[eu]": "Proba unitarioen ikuspegia",
        "Name[fr]": "Affichage des tests unitaires",
        "Name[gl]": "Vista de probas unitarias",
        "Name[hu]": "Egységteszt nézet",
        "Name[it]": "Vista test d'unità",
        "Name[ka]": "ერთეულის ტესტის ხედი",
        "Name[kk]": "Модульді сынау көрінісі",
        "Name[ko]": "단위 테스트 보기",
        "Name[nb]": "Enhetstest-visning",
        "Name[nl]": "Weergave van test van eenheid",
        "Name[pl]": "Widok jednostkowego testu",
        "Name[pt]": "Área de Testes Unitários",
        "Name[pt_BR]": "Exibição de testes unitários",
        "Name[ru]": "Панель модульных тестов",
        "Name[sk]": "Pohľad unit testov",
        "Name[sl]": "Prikaz preizkusov enot",
        "Name[sv]": "Visning av enhetstester",
        "Name[tr]": "Birim Test Görünümü",
        "Name[uk]": "Перегляд перевірок модулів",
        "Name[x-test]": "xxUnit Test Viewxx",
        "Name[zh_CN]": "单元测试视图",
        "Name[zh_TW]": "單元測試檢視"
    },
    "X-KDevelop-Category": "Global",
    "X-KDevelop-Mode": "GUI"
}
