{
    "KPlugin": {
        "Description": "Provides the welcome page visible in an empty session",
        "Description[az]": "Bo sessiyada salamlama səhifəsinin görünə bilməsini təmin edir",
        "Description[ca@valencia]": "Proporciona la visibilitat de la pàgina de benvinguda en una sessió buida",
        "Description[ca]": "Proporciona la visibilitat de la pàgina de benvinguda en una sessió buida",
        "Description[cs]": "Poskytuje uvítací obrazovku viditelnou v prázdném sezení",
        "Description[de]": "Die in einer leeren Sitzung angezeigte Startseite",
        "Description[el]": "Παρέχει τη σελίδα υποδοχής ορατη σε μια κενή συνεδρία",
        "Description[en_GB]": "Provides the welcome page visible in an empty session",
        "Description[es]": "Proporciona la página de bienvenida visible en una sesión vacía",
        "Description[et]": "Pakub tühjas seansis näidatavat tervituslehekülge",
        "Description[eu]": "Saio huts batean ongietorri orria ematen du",
        "Description[fr]": "Fournit la page d'accueil visible dans une session vide",
        "Description[gl]": "Fornece a páxina de benvida visíbel nunha sesión baleira.",
        "Description[it]": "Fornisce la pagina di benvenuto visibile in una sessione vuota",
        "Description[ko]": "빈 세션에 환영 페이지를 표시합니다",
        "Description[nl]": "Biedt de welkomst pagina zichtbaar in een lege sessie",
        "Description[pl]": "Pokazuje stronę powitania widoczną przy pustych sesjach",
        "Description[pt]": "Oferece a página de boas-vindas visível numa sessão vazia",
        "Description[pt_BR]": "Oferece a página de boas-vindas visível em uma sessão vazia",
        "Description[ru]": "Предоставляет страницу приветствия, которая отображается при пустом сеансе",
        "Description[sk]": "Poskytuje uvítaciu stránku viditeľnú v prázdnom sedení",
        "Description[sl]": "Ponuja pozdravni zaslon, ki je viden v prazni seji",
        "Description[sv]": "Tillhandahåller välkomstsidan synlig i en tom session",
        "Description[tr]": "Boş oturumda görünen hoşgeldin sayfasını sağlar",
        "Description[uk]": "Забезпечує роботу сторінки вітання, яку програма показує, якщо сеанс порожній",
        "Description[x-test]": "xxProvides the welcome page visible in an empty sessionxx",
        "Description[zh_CN]": "提供空白会话的欢迎页",
        "Icon": "kdevelop",
        "Id": "KDevWelcomePage",
        "Name": "KDevelop Welcome Page",
        "Name[ar]": "صفحة ترحيب مطوّرك",
        "Name[az]": "KDevelop salamlama səhifəsi",
        "Name[ca@valencia]": "Pàgina de benvinguda de KDevelop",
        "Name[ca]": "Pàgina de benvinguda del KDevelop",
        "Name[cs]": "Uvítací stránka KDevelop",
        "Name[de]": "KDevelop-Startseite",
        "Name[el]": "Σελίδα υποδοχής του KDevelop",
        "Name[en_GB]": "KDevelop Welcome Page",
        "Name[es]": "Página de bienvenida de KDevelop",
        "Name[et]": "KDevelopi tervituslehekülg",
        "Name[eu]": "KDevelop ongietorri orria",
        "Name[fr]": "Page d'accueil de KDevelop",
        "Name[gl]": "Páxina de benvida de KDevelop",
        "Name[hu]": "KDevelop üdvözlőképernyő",
        "Name[it]": "Pagina di benvenuto di KDevelop",
        "Name[ka]": "KDevelop-ის საწყისი გვერდი",
        "Name[ko]": "KDevelop 환영 페이지",
        "Name[nl]": "Welkomstpagina van KDevelop",
        "Name[pl]": "Strona powitalna KDevelop",
        "Name[pt]": "Página de Boas-Vindas do KDevelop",
        "Name[pt_BR]": "Página de boas-vindas do KDevelop",
        "Name[ru]": "Страница приветствия KDevelop",
        "Name[sk]": "Uvítacia stránka KDevelop",
        "Name[sl]": "Pozdravna stran za KDevelop",
        "Name[sv]": "KDevelop välkomstsida",
        "Name[tr]": "KDevelop Karşılama Sayfası",
        "Name[uk]": "Сторінка вітання KDevelop",
        "Name[x-test]": "xxKDevelop Welcome Pagexx",
        "Name[zh_CN]": "KDevelop 欢迎页面"
    },
    "X-KDevelop-Category": "Global",
    "X-KDevelop-Mode": "GUI"
}
